 splib07a Record=18568: Concrete GDS375 Lt Gry Road  ASDFRa AREF
 1.5264881e-001
 1.5265818e-001
 1.5266865e-001
 1.5282907e-001
 1.5306519e-001
 1.5332951e-001
 1.5363525e-001
 1.5397552e-001
 1.5433200e-001
 1.5468869e-001
 1.5505077e-001
 1.5543687e-001
 1.5586394e-001
 1.5632440e-001
 1.5679626e-001
 1.5725984e-001
 1.5772578e-001
 1.5822187e-001
 1.5877402e-001
 1.5938087e-001
 1.6002451e-001
 1.6068757e-001
 1.6136518e-001
 1.6206020e-001
 1.6277535e-001
 1.6351821e-001
 1.6429870e-001
 1.6512531e-001
 1.6598652e-001
 1.6685821e-001
 1.6771884e-001
 1.6856703e-001
 1.6941297e-001
 1.7026688e-001
 1.7112936e-001
 1.7199492e-001
 1.7285864e-001
 1.7372184e-001
 1.7458974e-001
 1.7546611e-001
 1.7634255e-001
 1.7720313e-001
 1.7803368e-001
 1.7883928e-001
 1.7963623e-001
 1.8043981e-001
 1.8124948e-001
 1.8205562e-001
 1.8284872e-001
 1.8362592e-001
 1.8438777e-001
 1.8513536e-001
 1.8587206e-001
 1.8660337e-001
 1.8733403e-001
 1.8806179e-001
 1.8878150e-001
 1.8948792e-001
 1.9018264e-001
 1.9087151e-001
 1.9156030e-001
 1.9225577e-001
 1.9296572e-001
 1.9369613e-001
 1.9443882e-001
 1.9517638e-001
 1.9589429e-001
 1.9660117e-001
 1.9732016e-001
 1.9807196e-001
 1.9885458e-001
 1.9965149e-001
 2.0044829e-001
 2.0124482e-001
 2.0205021e-001
 2.0287248e-001
 2.0371147e-001
 2.0456234e-001
 2.0542069e-001
 2.0628713e-001
 2.0716599e-001
 2.0806055e-001
 2.0896560e-001
 2.0987146e-001
 2.1076894e-001
 2.1165849e-001
 2.1254644e-001
 2.1343808e-001
 2.1432959e-001
 2.1521147e-001
 2.1607497e-001
 2.1691956e-001
 2.1774907e-001
 2.1856698e-001
 2.1937208e-001
 2.2015965e-001
 2.2092550e-001
 2.2166708e-001
 2.2238286e-001
 2.2307144e-001
 2.2373657e-001
 2.2438425e-001
 2.2501998e-001
 2.2564016e-001
 2.2623661e-001
 2.2680196e-001
 2.2733954e-001
 2.2785915e-001
 2.2837014e-001
 2.2887389e-001
 2.2936757e-001
 2.2984773e-001
 2.3031361e-001
 2.3076512e-001
 2.3120332e-001
 2.3163354e-001
 2.3206468e-001
 2.3250428e-001
 2.3295246e-001
 2.3340389e-001
 2.3385404e-001
 2.3430243e-001
 2.3475091e-001
 2.3520166e-001
 2.3565775e-001
 2.3612279e-001
 2.3659965e-001
 2.3708892e-001
 2.3758902e-001
 2.3809867e-001
 2.3861906e-001
 2.3915362e-001
 2.3970492e-001
 2.4027169e-001
 2.4084957e-001
 2.4143551e-001
 2.4202998e-001
 2.4263673e-001
 2.4325863e-001
 2.4389580e-001
 2.4454512e-001
 2.4520428e-001
 2.4587254e-001
 2.4654971e-001
 2.4723630e-001
 2.4793026e-001
 2.4862932e-001
 2.4933107e-001
 2.5003612e-001
 2.5074676e-001
 2.5146443e-001
 2.5218737e-001
 2.5291052e-001
 2.5363007e-001
 2.5434524e-001
 2.5505784e-001
 2.5576913e-001
 2.5648096e-001
 2.5719446e-001
 2.5791064e-001
 2.5862846e-001
 2.5934625e-001
 2.6006207e-001
 2.6077551e-001
 2.6148796e-001
 2.6219994e-001
 2.6291269e-001
 2.6362729e-001
 2.6434448e-001
 2.6506335e-001
 2.6578197e-001
 2.6649851e-001
 2.6721305e-001
 2.6792702e-001
 2.6864144e-001
 2.6935613e-001
 2.7007020e-001
 2.7078280e-001
 2.7149317e-001
 2.7220082e-001
 2.7290538e-001
 2.7360749e-001
 2.7430841e-001
 2.7500924e-001
 2.7570787e-001
 2.7640048e-001
 2.7708355e-001
 2.7775854e-001
 2.7842942e-001
 2.7909997e-001
 2.7976948e-001
 2.8043452e-001
 2.8109211e-001
 2.8174305e-001
 2.8239048e-001
 2.8303730e-001
 2.8368348e-001
 2.8432736e-001
 2.8496718e-001
 2.8560150e-001
 2.8622860e-001
 2.8684735e-001
 2.8745937e-001
 2.8806788e-001
 2.8867584e-001
 2.8928277e-001
 2.8988594e-001
 2.9048312e-001
 2.9107353e-001
 2.9165781e-001
 2.9223651e-001
 2.9281005e-001
 2.9337883e-001
 2.9394314e-001
 2.9450202e-001
 2.9505375e-001
 2.9559684e-001
 2.9613185e-001
 2.9666033e-001
 2.9718369e-001
 2.9770041e-001
 2.9820719e-001
 2.9870126e-001
 2.9918292e-001
 2.9965448e-001
 3.0011794e-001
 3.0057225e-001
 3.0101454e-001
 3.0144206e-001
 3.0185419e-001
 3.0225143e-001
 3.0263430e-001
 3.0300394e-001
 3.0336165e-001
 3.0370876e-001
 3.0404699e-001
 3.0437845e-001
 3.0470482e-001
 3.0502406e-001
 3.0533215e-001
 3.0562547e-001
 3.0590597e-001
 3.0617869e-001
 3.0644822e-001
 3.0671310e-001
 3.0696851e-001
 3.0720997e-001
 3.0743888e-001
 3.0766013e-001
 3.0787823e-001
 3.0809465e-001
 3.0830887e-001
 3.0852038e-001
 3.0872762e-001
 3.0892858e-001
 3.0912152e-001
 3.0930728e-001
 3.0948848e-001
 3.0966744e-001
 3.0984300e-001
 3.1001213e-001
 3.1017211e-001
 3.1032449e-001
 3.1047326e-001
 3.1062210e-001
 3.1077075e-001
 3.1091675e-001
 3.1105784e-001
 3.1119406e-001
 3.1132674e-001
 3.1145704e-001
 3.1158394e-001
 3.1170520e-001
 3.1181863e-001
 3.1192410e-001
 3.1202286e-001
 3.1211606e-001
 3.1220472e-001
 3.1229115e-001
 3.1237647e-001
 3.1246087e-001
 3.1254503e-001
 3.1262860e-001
 3.1271160e-001
 3.1279528e-001
 3.1287938e-001
 3.1296369e-001
 3.1304589e-001
 3.1312534e-001
 3.1320250e-001
 3.1328055e-001
 3.1336111e-001
 3.1344339e-001
 3.1352368e-001
 3.1359839e-001
 3.1366897e-001
 3.1373760e-001
 3.1380758e-001
 3.1387886e-001
 3.1395161e-001
 3.1402460e-001
 3.1409699e-001
 3.1416896e-001
 3.1423953e-001
 3.1430909e-001
 3.1437942e-001
 3.1445104e-001
 3.1452277e-001
 3.1459174e-001
 3.1465635e-001
 3.1471813e-001
 3.1478146e-001
 3.1485015e-001
 3.1492350e-001
 3.1499809e-001
 3.1507063e-001
 3.1513968e-001
 3.1520462e-001
 3.1526533e-001
 3.1532344e-001
 3.1538168e-001
 3.1544271e-001
 3.1550688e-001
 3.1557339e-001
 3.1564122e-001
 3.1570846e-001
 3.1577271e-001
 3.1583169e-001
 3.1588671e-001
 3.1594068e-001
 3.1599653e-001
 3.1605390e-001
 3.1611103e-001
 3.1616643e-001
 3.1621987e-001
 3.1627327e-001
 3.1632826e-001
 3.1638455e-001
 3.1644097e-001
 3.1649643e-001
 3.1655020e-001
 3.1660214e-001
 3.1665128e-001
 3.1669861e-001
 3.1674507e-001
 3.1679189e-001
 3.1683925e-001
 3.1688729e-001
 3.1693584e-001
 3.1698447e-001
 3.1703126e-001
 3.1707564e-001
 3.1711817e-001
 3.1716052e-001
 3.1720409e-001
 3.1724909e-001
 3.1729478e-001
 3.1734046e-001
 3.1738606e-001
 3.1743172e-001
 3.1747755e-001
 3.1752262e-001
 3.1756532e-001
 3.1760430e-001
 3.1764022e-001
 3.1767479e-001
 3.1770983e-001
 3.1774542e-001
 3.1778041e-001
 3.1781396e-001
 3.1784591e-001
 3.1787667e-001
 3.1790659e-001
 3.1793609e-001
 3.1796587e-001
 3.1799629e-001
 3.1802699e-001
 3.1805691e-001
 3.1808490e-001
 3.1811026e-001
 3.1813228e-001
 3.1815067e-001
 3.1816718e-001
 3.1818503e-001
 3.1820697e-001
 3.1823260e-001
 3.1825942e-001
 3.1828514e-001
 3.1830847e-001
 3.1832892e-001
 3.1834579e-001
 3.1835970e-001
 3.1837144e-001
 3.1838194e-001
 3.1839138e-001
 3.1839967e-001
 3.1840664e-001
 3.1841248e-001
 3.1841782e-001
 3.1842294e-001
 3.1842762e-001
 3.1843129e-001
 3.1843334e-001
 3.1843314e-001
 3.1842959e-001
 3.1842303e-001
 3.1841379e-001
 3.1840354e-001
 3.1839371e-001
 3.1838396e-001
 3.1837311e-001
 3.1835994e-001
 3.1834409e-001
 3.1832555e-001
 3.1830451e-001
 3.1828168e-001
 3.1825811e-001
 3.1823477e-001
 3.1821194e-001
 3.1818953e-001
 3.1816733e-001
 3.1814402e-001
 3.1811780e-001
 3.1808707e-001
 3.1805271e-001
 3.1801730e-001
 3.1798300e-001
 3.1794903e-001
 3.1791282e-001
 3.1787205e-001
 3.1782752e-001
 3.1778198e-001
 3.1773794e-001
 3.1769535e-001
 3.1765264e-001
 3.1760842e-001
 3.1756282e-001
 3.1751683e-001
 3.1747121e-001
 3.1742519e-001
 3.1737700e-001
 3.1732503e-001
 3.1726950e-001
 3.1721175e-001
 3.1715348e-001
 3.1709495e-001
 3.1703705e-001
 3.1698036e-001
 3.1692556e-001
 3.1687313e-001
 3.1682348e-001
 3.1677434e-001
 3.1672177e-001
 3.1666231e-001
 3.1659770e-001
 3.1653267e-001
 3.1647131e-001
 3.1641352e-001
 3.1635639e-001
 3.1629723e-001
 3.1623557e-001
 3.1617245e-001
 3.1610858e-001
 3.1604356e-001
 3.1597614e-001
 3.1590542e-001
 3.1583399e-001
 3.1576648e-001
 3.1570682e-001
 3.1565115e-001
 3.1559128e-001
 3.1551978e-001
 3.1543964e-001
 3.1536019e-001
 3.1528965e-001
 3.1522715e-001
 3.1516650e-001
 3.1510171e-001
 3.1503147e-001
 3.1495732e-001
 3.1488067e-001
 3.1480375e-001
 3.1472901e-001
 3.1465879e-001
 3.1459200e-001
 3.1452578e-001
 3.1445757e-001
 3.1438676e-001
 3.1431422e-001
 3.1424072e-001
 3.1416744e-001
 3.1409526e-001
 3.1402519e-001
 3.1395629e-001
 3.1388637e-001
 3.1381360e-001
 3.1373844e-001
 3.1366295e-001
 3.1358913e-001
 3.1351838e-001
 3.1345212e-001
 3.1339121e-001
 3.1333283e-001
 3.1327197e-001
 3.1320420e-001
 3.1313154e-001
 3.1305978e-001
 3.1299403e-001
 3.1293273e-001
 3.1287107e-001
 3.1280395e-001
 3.1273133e-001
 3.1265613e-001
 3.1258103e-001
 3.1250784e-001
 3.1243768e-001
 3.1237158e-001
 3.1230932e-001
 3.1224996e-001
 3.1219256e-001
 3.1213540e-001
 3.1207654e-001
 3.1201416e-001
 3.1194967e-001
 3.1188619e-001
 3.1182656e-001
 3.1177074e-001
 3.1171679e-001
 3.1166306e-001
 3.1160867e-001
 3.1155357e-001
 3.1149763e-001
 3.1144235e-001
 3.1138986e-001
 3.1134236e-001
 3.1129891e-001
 3.1125706e-001
 3.1121436e-001
 3.1116918e-001
 3.1112027e-001
 3.1106681e-001
 3.1101108e-001
 3.1095719e-001
 3.1090897e-001
 3.1086612e-001
 3.1082588e-001
 3.1078580e-001
 3.1074572e-001
 3.1070688e-001
 3.1067052e-001
 3.1063592e-001
 3.1060031e-001
 3.1056204e-001
 3.1052202e-001
 3.1048271e-001
 3.1044638e-001
 3.1041238e-001
 3.1037855e-001
 3.1034285e-001
 3.1030563e-001
 3.1026864e-001
 3.1023353e-001
 3.1020111e-001
 3.1017146e-001
 3.1014475e-001
 3.1011963e-001
 3.1009406e-001
 3.1006616e-001
 3.1003702e-001
 3.1000930e-001
 3.0998543e-001
 3.0996424e-001
 3.0994257e-001
 3.0991766e-001
 3.0989122e-001
 3.0986771e-001
 3.0985105e-001
 3.0983916e-001
 3.0982649e-001
 3.0980796e-001
 3.0978450e-001
 3.0976027e-001
 3.0973938e-001
 3.0972254e-001
 3.0970854e-001
 3.0969614e-001
 3.0968440e-001
 3.0967230e-001
 3.0965903e-001
 3.0964467e-001
 3.0962974e-001
 3.0961499e-001
 3.0960113e-001
 3.0958930e-001
 3.0958027e-001
 3.0957305e-001
 3.0956575e-001
 3.0955657e-001
 3.0954719e-001
 3.0954102e-001
 3.0954117e-001
 3.0954507e-001
 3.0954677e-001
 3.0954179e-001
 3.0953136e-001
 3.0952117e-001
 3.0951640e-001
 3.0951741e-001
 3.0952188e-001
 3.0952716e-001
 3.0953011e-001
 3.0952713e-001
 3.0951512e-001
 3.0949715e-001
 3.0948085e-001
 3.0947232e-001
 3.0947101e-001
 3.0947211e-001
 3.0947140e-001
 3.0946976e-001
 3.0947134e-001
 3.0947977e-001
 3.0949357e-001
 3.0950862e-001
 3.0952063e-001
 3.0952722e-001
 3.0952650e-001
 3.0951819e-001
 3.0950648e-001
 3.0949911e-001
 3.0950323e-001
 3.0951834e-001
 3.0953956e-001
 3.0956191e-001
 3.0958024e-001
 3.0958983e-001
 3.0958566e-001
 3.0957294e-001
 3.0956167e-001
 3.0956089e-001
 3.0956876e-001
 3.0957684e-001
 3.0957735e-001
 3.0957136e-001
 3.0956519e-001
 3.0956477e-001
 3.0956981e-001
 3.0957761e-001
 3.0958524e-001
 3.0959070e-001
 3.0959278e-001
 3.0958986e-001
 3.0958629e-001
 3.0958918e-001
 3.0960593e-001
 3.0963531e-001
 3.0965972e-001
 3.0965915e-001
 3.0962673e-001
 3.0958766e-001
 3.0957115e-001
 3.0959192e-001
 3.0963486e-001
 3.0968091e-001
 3.0971307e-001
 3.0972284e-001
 3.0970258e-001
 3.0965334e-001
 3.0959857e-001
 3.0956447e-001
 3.0956224e-001
 3.0957231e-001
 3.0957103e-001
 3.0954814e-001
 3.0952641e-001
 3.0953264e-001
 3.0957532e-001
 3.0962262e-001
 3.0963767e-001
 3.0960530e-001
 3.0956164e-001
 3.0954930e-001
 3.0958948e-001
 3.0965513e-001
 3.0971295e-001
 3.0974251e-001
 3.0975431e-001
 3.0976191e-001
 3.0977401e-001
 3.0978844e-001
 3.0980101e-001
 3.0981061e-001
 3.0981955e-001
 3.0983195e-001
 3.0984855e-001
 3.0986640e-001
 3.0988076e-001
 3.0988890e-001
 3.0989072e-001
 3.0988634e-001
 3.0987844e-001
 3.0987352e-001
 3.0987966e-001
 3.0990088e-001
 3.0993477e-001
 3.0997679e-001
 3.1002083e-001
 3.1005621e-001
 3.1007141e-001
 3.1006306e-001
 3.1004333e-001
 3.1002638e-001
 3.1002247e-001
 3.1002980e-001
 3.1004515e-001
 3.1006601e-001
 3.1008863e-001
 3.1010956e-001
 3.1012717e-001
 3.1014422e-001
 3.1016389e-001
 3.1018829e-001
 3.1021655e-001
 3.1024745e-001
 3.1027862e-001
 3.1030509e-001
 3.1032181e-001
 3.1032768e-001
 3.1033370e-001
 3.1035119e-001
 3.1038630e-001
 3.1043029e-001
 3.1047285e-001
 3.1050804e-001
 3.1053984e-001
 3.1057250e-001
 3.1060910e-001
 3.1064582e-001
 3.1067866e-001
 3.1070533e-001
 3.1072792e-001
 3.1074956e-001
 3.1077123e-001
 3.1079322e-001
 3.1081456e-001
 3.1083581e-001
 3.1085855e-001
 3.1088597e-001
 3.1091958e-001
 3.1095958e-001
 3.1100637e-001
 3.1105620e-001
 3.1109965e-001
 3.1112531e-001
 3.1113264e-001
 3.1114277e-001
 3.1118101e-001
 3.1125578e-001
 3.1134182e-001
 3.1140825e-001
 3.1143862e-001
 3.1144789e-001
 3.1145492e-001
 3.1147301e-001
 3.1150001e-001
 3.1153205e-001
 3.1156608e-001
 3.1160274e-001
 3.1164160e-001
 3.1168336e-001
 3.1172866e-001
 3.1177807e-001
 3.1183058e-001
 3.1188238e-001
 3.1192899e-001
 3.1196940e-001
 3.1200966e-001
 3.1205741e-001
 3.1211647e-001
 3.1218258e-001
 3.1225088e-001
 3.1231713e-001
 3.1238005e-001
 3.1243935e-001
 3.1249511e-001
 3.1255141e-001
 3.1261271e-001
 3.1268045e-001
 3.1274790e-001
 3.1280658e-001
 3.1285363e-001
 3.1289527e-001
 3.1293860e-001
 3.1298718e-001
 3.1303787e-001
 3.1308451e-001
 3.1312516e-001
 3.1316310e-001
 3.1320232e-001
 3.1324580e-001
 3.1329176e-001
 3.1333715e-001
 3.1338063e-001
 3.1342298e-001
 3.1346399e-001
 3.1350499e-001
 3.1354648e-001
 3.1358823e-001
 3.1363079e-001
 3.1367177e-001
 3.1370941e-001
 3.1374252e-001
 3.1377354e-001
 3.1380469e-001
 3.1383795e-001
 3.1387258e-001
 3.1390855e-001
 3.1394431e-001
 3.1397989e-001
 3.1401423e-001
 3.1404755e-001
 3.1408373e-001
 3.1412679e-001
 3.1417760e-001
 3.1423041e-001
 3.1427851e-001
 3.1431785e-001
 3.1435052e-001
 3.1437927e-001
 3.1440750e-001
 3.1443760e-001
 3.1447333e-001
 3.1451496e-001
 3.1455776e-001
 3.1459567e-001
 3.1462619e-001
 3.1465480e-001
 3.1468743e-001
 3.1472811e-001
 3.1477568e-001
 3.1482795e-001
 3.1488219e-001
 3.1493294e-001
 3.1497493e-001
 3.1500599e-001
 3.1503111e-001
 3.1505606e-001
 3.1508520e-001
 3.1511658e-001
 3.1514883e-001
 3.1518042e-001
 3.1521294e-001
 3.1524727e-001
 3.1528488e-001
 3.1532630e-001
 3.1537107e-001
 3.1541911e-001
 3.1546879e-001
 3.1551814e-001
 3.1556559e-001
 3.1561148e-001
 3.1565613e-001
 3.1569937e-001
 3.1574038e-001
 3.1577855e-001
 3.1581435e-001
 3.1585008e-001
 3.1588778e-001
 3.1592885e-001
 3.1597206e-001
 3.1601527e-001
 3.1605676e-001
 3.1609514e-001
 3.1612810e-001
 3.1615701e-001
 3.1618735e-001
 3.1622550e-001
 3.1627405e-001
 3.1632647e-001
 3.1637558e-001
 3.1641647e-001
 3.1645226e-001
 3.1648782e-001
 3.1652543e-001
 3.1656420e-001
 3.1660327e-001
 3.1664178e-001
 3.1667906e-001
 3.1671515e-001
 3.1675047e-001
 3.1678641e-001
 3.1682539e-001
 3.1686795e-001
 3.1691232e-001
 3.1695667e-001
 3.1699911e-001
 3.1703958e-001
 3.1707746e-001
 3.1711298e-001
 3.1714725e-001
 3.1718168e-001
 3.1721780e-001
 3.1725824e-001
 3.1730512e-001
 3.1735837e-001
 3.1741211e-001
 3.1745988e-001
 3.1749842e-001
 3.1753081e-001
 3.1756124e-001
 3.1759277e-001
 3.1762633e-001
 3.1766170e-001
 3.1769919e-001
 3.1773993e-001
 3.1778425e-001
 3.1783152e-001
 3.1787810e-001
 3.1791970e-001
 3.1795388e-001
 3.1798381e-001
 3.1801340e-001
 3.1804511e-001
 3.1807971e-001
 3.1811729e-001
 3.1815705e-001
 3.1819704e-001
 3.1823450e-001
 3.1826884e-001
 3.1830227e-001
 3.1833714e-001
 3.1837583e-001
 3.1841749e-001
 3.1846160e-001
 3.1850743e-001
 3.1855127e-001
 3.1859007e-001
 3.1862241e-001
 3.1865120e-001
 3.1867966e-001
 3.1871152e-001
 3.1874850e-001
 3.1879357e-001
 3.1884566e-001
 3.1889954e-001
 3.1894779e-001
 3.1898692e-001
 3.1902030e-001
 3.1905121e-001
 3.1908342e-001
 3.1911781e-001
 3.1915519e-001
 3.1919643e-001
 3.1924021e-001
 3.1928557e-001
 3.1933036e-001
 3.1937325e-001
 3.1941268e-001
 3.1944847e-001
 3.1948483e-001
 3.1952667e-001
 3.1957635e-001
 3.1963128e-001
 3.1968755e-001
 3.1974229e-001
 3.1979463e-001
 3.1984380e-001
 3.1988934e-001
 3.1992957e-001
 3.1996417e-001
 3.1999347e-001
 3.2002082e-001
 3.2005122e-001
 3.2008711e-001
 3.2012767e-001
 3.2017162e-001
 3.2021797e-001
 3.2026455e-001
 3.2030976e-001
 3.2035205e-001
 3.2039118e-001
 3.2042629e-001
 3.2045802e-001
 3.2048830e-001
 3.2052040e-001
 3.2055530e-001
 3.2059121e-001
 3.2062525e-001
 3.2065597e-001
 3.2068419e-001
 3.2071149e-001
 3.2073912e-001
 3.2076937e-001
 3.2080415e-001
 3.2084391e-001
 3.2088590e-001
 3.2092607e-001
 3.2096356e-001
 3.2100004e-001
 3.2103941e-001
 3.2108346e-001
 3.2113084e-001
 3.2118014e-001
 3.2123005e-001
 3.2127863e-001
 3.2132411e-001
 3.2136542e-001
 3.2140160e-001
 3.2143244e-001
 3.2145798e-001
 3.2148093e-001
 3.2150352e-001
 3.2152674e-001
 3.2154837e-001
 3.2156423e-001
 3.2157275e-001
 3.2157397e-001
 3.2156914e-001
 3.2155913e-001
 3.2154512e-001
 3.2152984e-001
 3.2151350e-001
 3.2149479e-001
 3.2147253e-001
 3.2144552e-001
 3.2141307e-001
 3.2137534e-001
 3.2133240e-001
 3.2128662e-001
 3.2124102e-001
 3.2119471e-001
 3.2114172e-001
 3.2107547e-001
 3.2099271e-001
 3.2089764e-001
 3.2079625e-001
 3.2069123e-001
 3.2058018e-001
 3.2045946e-001
 3.2032692e-001
 3.2018453e-001
 3.2003456e-001
 3.1987771e-001
 3.1971255e-001
 3.1953645e-001
 3.1934899e-001
 3.1915152e-001
 3.1894615e-001
 3.1873497e-001
 3.1851947e-001
 3.1830075e-001
 3.1807953e-001
 3.1785640e-001
 3.1763151e-001
 3.1740606e-001
 3.1718421e-001
 3.1697026e-001
 3.1676853e-001
 3.1658196e-001
 3.1641322e-001
 3.1626624e-001
 3.1614733e-001
 3.1606239e-001
 3.1601521e-001
 3.1600383e-001
 3.1602499e-001
 3.1607562e-001
 3.1615278e-001
 3.1625250e-001
 3.1637236e-001
 3.1650925e-001
 3.1666034e-001
 3.1682232e-001
 3.1699052e-001
 3.1715998e-001
 3.1732795e-001
 3.1749603e-001
 3.1766650e-001
 3.1783900e-001
 3.1800684e-001
 3.1816247e-001
 3.1830361e-001
 3.1843650e-001
 3.1856981e-001
 3.1870738e-001
 3.1884453e-001
 3.1897509e-001
 3.1909516e-001
 3.1920779e-001
 3.1931525e-001
 3.1942099e-001
 3.1952715e-001
 3.1963551e-001
 3.1974652e-001
 3.1985712e-001
 3.1996340e-001
 3.2006335e-001
 3.2015774e-001
 3.2024819e-001
 3.2033601e-001
 3.2042214e-001
 3.2050750e-001
 3.2059208e-001
 3.2067496e-001
 3.2075551e-001
 3.2083374e-001
 3.2091334e-001
 3.2099825e-001
 3.2109022e-001
 3.2118616e-001
 3.2128185e-001
 3.2137439e-001
 3.2146627e-001
 3.2155988e-001
 3.2165614e-001
 3.2175431e-001
 3.2185343e-001
 3.2195294e-001
 3.2205513e-001
 3.2216224e-001
 3.2227448e-001
 3.2238904e-001
 3.2250309e-001
 3.2261449e-001
 3.2272756e-001
 3.2284567e-001
 3.2297093e-001
 3.2309994e-001
 3.2322943e-001
 3.2335758e-001
 3.2348669e-001
 3.2361943e-001
 3.2375753e-001
 3.2389736e-001
 3.2403582e-001
 3.2417020e-001
 3.2430118e-001
 3.2442838e-001
 3.2455322e-001
 3.2467589e-001
 3.2479817e-001
 3.2492024e-001
 3.2504305e-001
 3.2516634e-001
 3.2529032e-001
 3.2541463e-001
 3.2553768e-001
 3.2565945e-001
 3.2577953e-001
 3.2589757e-001
 3.2601470e-001
 3.2613316e-001
 3.2625443e-001
 3.2637998e-001
 3.2650858e-001
 3.2663801e-001
 3.2676670e-001
 3.2689342e-001
 3.2701752e-001
 3.2713777e-001
 3.2725555e-001
 3.2737145e-001
 3.2748654e-001
 3.2760289e-001
 3.2772276e-001
 3.2784629e-001
 3.2797179e-001
 3.2809618e-001
 3.2821763e-001
 3.2833630e-001
 3.2845247e-001
 3.2856646e-001
 3.2867858e-001
 3.2878849e-001
 3.2889658e-001
 3.2900384e-001
 3.2911158e-001
 3.2922006e-001
 3.2932794e-001
 3.2943290e-001
 3.2953447e-001
 3.2963708e-001
 3.2974476e-001
 3.2985970e-001
 3.2997951e-001
 3.3010015e-001
 3.3022013e-001
 3.3033997e-001
 3.3046040e-001
 3.3058167e-001
 3.3069983e-001
 3.3081093e-001
 3.3091336e-001
 3.3101383e-001
 3.3111867e-001
 3.3123186e-001
 3.3134830e-001
 3.3146209e-001
 3.3156946e-001
 3.3167177e-001
 3.3177111e-001
 3.3186921e-001
 3.3196568e-001
 3.3206141e-001
 3.3215669e-001
 3.3225286e-001
 3.3235130e-001
 3.3245322e-001
 3.3255669e-001
 3.3265999e-001
 3.3276165e-001
 3.3286124e-001
 3.3295816e-001
 3.3305359e-001
 3.3314946e-001
 3.3324802e-001
 3.3335149e-001
 3.3345768e-001
 3.3356524e-001
 3.3367294e-001
 3.3378032e-001
 3.3388677e-001
 3.3399263e-001
 3.3409640e-001
 3.3419761e-001
 3.3429632e-001
 3.3439448e-001
 3.3449480e-001
 3.3459875e-001
 3.3470494e-001
 3.3481133e-001
 3.3491668e-001
 3.3501902e-001
 3.3511707e-001
 3.3521113e-001
 3.3530593e-001
 3.3540627e-001
 3.3551434e-001
 3.3562586e-001
 3.3573529e-001
 3.3583841e-001
 3.3593541e-001
 3.3602631e-001
 3.3611277e-001
 3.3619776e-001
 3.3628502e-001
 3.3637697e-001
 3.3647281e-001
 3.3657074e-001
 3.3666962e-001
 3.3676893e-001
 3.3686841e-001
 3.3696762e-001
 3.3706519e-001
 3.3716151e-001
 3.3725572e-001
 3.3735049e-001
 3.3744797e-001
 3.3754820e-001
 3.3764914e-001
 3.3774677e-001
 3.3783928e-001
 3.3792901e-001
 3.3801797e-001
 3.3810779e-001
 3.3819693e-001
 3.3828431e-001
 3.3836812e-001
 3.3844978e-001
 3.3853027e-001
 3.3861077e-001
 3.3869272e-001
 3.3877784e-001
 3.3886790e-001
 3.3896181e-001
 3.3905929e-001
 3.3915874e-001
 3.3925784e-001
 3.3935371e-001
 3.3944452e-001
 3.3953092e-001
 3.3961466e-001
 3.3969662e-001
 3.3977908e-001
 3.3986509e-001
 3.3995539e-001
 3.4004799e-001
 3.4014118e-001
 3.4023347e-001
 3.4032503e-001
 3.4041598e-001
 3.4050676e-001
 3.4059799e-001
 3.4069005e-001
 3.4078383e-001
 3.4087840e-001
 3.4097248e-001
 3.4106597e-001
 3.4115788e-001
 3.4124848e-001
 3.4133762e-001
 3.4142691e-001
 3.4151778e-001
 3.4161112e-001
 3.4170330e-001
 3.4179103e-001
 3.4187192e-001
 3.4194902e-001
 3.4202567e-001
 3.4210497e-001
 3.4218788e-001
 3.4227517e-001
 3.4236711e-001
 3.4245956e-001
 3.4254810e-001
 3.4263170e-001
 3.4271431e-001
 3.4280220e-001
 3.4289742e-001
 3.4299523e-001
 3.4309027e-001
 3.4317905e-001
 3.4326372e-001
 3.4334654e-001
 3.4342939e-001
 3.4351295e-001
 3.4359783e-001
 3.4368524e-001
 3.4377638e-001
 3.4387302e-001
 3.4397480e-001
 3.4407496e-001
 3.4416649e-001
 3.4424686e-001
 3.4432387e-001
 3.4440684e-001
 3.4449989e-001
 3.4459516e-001
 3.4468475e-001
 3.4476432e-001
 3.4483963e-001
 3.4491852e-001
 3.4500438e-001
 3.4509331e-001
 3.4517962e-001
 3.4526023e-001
 3.4533635e-001
 3.4541029e-001
 3.4548396e-001
 3.4555852e-001
 3.4563658e-001
 3.4571847e-001
 3.4580100e-001
 3.4588066e-001
 3.4595621e-001
 3.4602913e-001
 3.4610224e-001
 3.4617633e-001
 3.4624952e-001
 3.4632006e-001
 3.4638712e-001
 3.4645441e-001
 3.4652573e-001
 3.4660181e-001
 3.4667957e-001
 3.4675306e-001
 3.4681994e-001
 3.4687942e-001
 3.4693164e-001
 3.4697840e-001
 3.4702274e-001
 3.4706888e-001
 3.4711871e-001
 3.4717214e-001
 3.4722802e-001
 3.4728453e-001
 3.4733915e-001
 3.4739006e-001
 3.4743440e-001
 3.4747326e-001
 3.4750634e-001
 3.4753555e-001
 3.4756666e-001
 3.4760559e-001
 3.4765303e-001
 3.4769952e-001
 3.4773383e-001
 3.4775069e-001
 3.4775990e-001
 3.4777287e-001
 3.4779513e-001
 3.4782103e-001
 3.4784392e-001
 3.4785980e-001
 3.4787470e-001
 3.4789488e-001
 3.4792414e-001
 3.4795767e-001
 3.4798980e-001
 3.4801629e-001
 3.4803835e-001
 3.4805584e-001
 3.4807155e-001
 3.4808806e-001
 3.4810886e-001
 3.4813634e-001
 3.4816870e-001
 3.4820399e-001
 3.4824124e-001
 3.4827977e-001
 3.4832042e-001
 3.4836215e-001
 3.4840453e-001
 3.4844530e-001
 3.4848437e-001
 3.4852287e-001
 3.4856290e-001
 3.4860533e-001
 3.4864843e-001
 3.4869137e-001
 3.4873387e-001
 3.4877703e-001
 3.4882343e-001
 3.4887540e-001
 3.4893441e-001
 3.4900281e-001
 3.4908018e-001
 3.4915984e-001
 3.4923527e-001
 3.4930196e-001
 3.4936261e-001
 3.4941992e-001
 3.4947625e-001
 3.4953269e-001
 3.4958893e-001
 3.4964576e-001
 3.4970182e-001
 3.4975645e-001
 3.4981045e-001
 3.4986588e-001
 3.4992716e-001
 3.4999442e-001
 3.5006270e-001
 3.5012662e-001
 3.5018364e-001
 3.5023975e-001
 3.5030282e-001
 3.5037234e-001
 3.5043135e-001
 3.5046038e-001
 3.5045090e-001
 3.5041481e-001
 3.5036853e-001
 3.5032579e-001
 3.5029724e-001
 3.5029304e-001
 3.5032165e-001
 3.5037452e-001
 3.5043338e-001
 3.5048136e-001
 3.5052127e-001
 3.5056880e-001
 3.5063660e-001
 3.5072017e-001
 3.5080281e-001
 3.5087103e-001
 3.5092789e-001
 3.5098779e-001
 3.5106418e-001
 3.5114935e-001
 3.5122538e-001
 3.5127518e-001
 3.5130495e-001
 3.5133359e-001
 3.5137799e-001
 3.5143879e-001
 3.5150734e-001
 3.5157371e-001
 3.5163310e-001
 3.5168153e-001
 3.5171691e-001
 3.5174298e-001
 3.5176817e-001
 3.5179925e-001
 3.5183379e-001
 3.5186198e-001
 3.5187590e-001
 3.5187703e-001
 3.5187304e-001
 3.5187107e-001
 3.5187262e-001
 3.5187572e-001
 3.5187900e-001
 3.5188159e-001
 3.5188305e-001
 3.5188329e-001
 3.5188016e-001
 3.5187274e-001
 3.5185808e-001
 3.5183588e-001
 3.5180426e-001
 3.5176226e-001
 3.5171098e-001
 3.5165146e-001
 3.5158566e-001
 3.5151342e-001
 3.5143328e-001
 3.5134441e-001
 3.5124335e-001
 3.5112470e-001
 3.5098448e-001
 3.5081953e-001
 3.5062802e-001
 3.5040900e-001
 3.5016406e-001
 3.4989771e-001
 3.4961447e-001
 3.4930843e-001
 3.4896880e-001
 3.4858638e-001
 3.4816071e-001
 3.4769833e-001
 3.4720445e-001
 3.4668320e-001
 3.4613675e-001
 3.4556699e-001
 3.4497175e-001
 3.4434655e-001
 3.4368783e-001
 3.4299508e-001
 3.4227052e-001
 3.4151661e-001
 3.4073076e-001
 3.3990678e-001
 3.3903936e-001
 3.3812180e-001
 3.3714777e-001
 3.3611083e-001
 3.3501527e-001
 3.3387032e-001
 3.3268538e-001
 3.3146396e-001
 3.3020607e-001
 3.2891190e-001
 3.2758152e-001
 3.2621503e-001
 3.2481328e-001
 3.2338658e-001
 3.2195160e-001
 3.2052484e-001
 3.1912175e-001
 3.1775963e-001
 3.1645319e-001
 3.1520587e-001
 3.1401330e-001
 3.1287205e-001
 3.1178907e-001
 3.1077719e-001
 3.0984819e-001
 3.0900499e-001
 3.0824354e-001
 3.0756167e-001
 3.0695480e-001
 3.0641991e-001
 3.0595368e-001
 3.0555573e-001
 3.0522725e-001
 3.0496913e-001
 3.0477208e-001
 3.0462196e-001
 3.0450448e-001
 3.0441749e-001
 3.0436543e-001
 3.0435199e-001
 3.0437428e-001
 3.0442548e-001
 3.0449867e-001
 3.0459422e-001
 3.0471560e-001
 3.0486593e-001
 3.0503729e-001
 3.0521578e-001
 3.0538800e-001
 3.0555698e-001
 3.0573347e-001
 3.0592808e-001
 3.0614379e-001
 3.0637798e-001
 3.0662861e-001
 3.0688781e-001
 3.0714443e-001
 3.0738991e-001
 3.0762601e-001
 3.0786231e-001
 3.0810833e-001
 3.0836424e-001
 3.0862537e-001
 3.0888709e-001
 3.0914852e-001
 3.0941015e-001
 3.0967218e-001
 3.0993250e-001
 3.1018817e-001
 3.1043634e-001
 3.1067818e-001
 3.1091702e-001
 3.1115660e-001
 3.1139922e-001
 3.1164595e-001
 3.1189796e-001
 3.1215292e-001
 3.1240621e-001
 3.1265441e-001
 3.1289801e-001
 3.1314093e-001
 3.1338716e-001
 3.1363943e-001
 3.1390044e-001
 3.1417289e-001
 3.1445464e-001
 3.1474158e-001
 3.1502879e-001
 3.1531489e-001
 3.1559956e-001
 3.1588206e-001
 3.1616274e-001
 3.1644177e-001
 3.1671870e-001
 3.1699467e-001
 3.1726965e-001
 3.1754473e-001
 3.1782010e-001
 3.1809744e-001
 3.1837738e-001
 3.1866020e-001
 3.1894633e-001
 3.1923571e-001
 3.1952968e-001
 3.1982967e-001
 3.2013616e-001
 3.2044417e-001
 3.2074529e-001
 3.2103124e-001
 3.2130727e-001
 3.2158476e-001
 3.2187399e-001
 3.2217559e-001
 3.2248327e-001
 3.2279107e-001
 3.2309911e-001
 3.2341051e-001
 3.2372832e-001
 3.2405379e-001
 3.2438648e-001
 3.2472655e-001
 3.2506672e-001
 3.2539761e-001
 3.2570991e-001
 3.2600853e-001
 3.2630688e-001
 3.2661539e-001
 3.2693037e-001
 3.2723883e-001
 3.2752824e-001
 3.2780012e-001
 3.2806408e-001
 3.2832932e-001
 3.2859576e-001
 3.2885936e-001
 3.2911664e-001
 3.2937235e-001
 3.2963502e-001
 3.2991415e-001
 3.3020449e-001
 3.3049607e-001
 3.3077794e-001
 3.3104834e-001
 3.3130968e-001
 3.3156538e-001
 3.3181468e-001
 3.3205521e-001
 3.3228493e-001
 3.3250627e-001
 3.3272496e-001
 3.3294588e-001
 3.3317238e-001
 3.3340725e-001
 3.3365166e-001
 3.3389735e-001
 3.3412957e-001
 3.3433482e-001
 3.3452222e-001
 3.3471060e-001
 3.3491948e-001
 3.3514905e-001
 3.3538985e-001
 3.3563244e-001
 3.3587131e-001
 3.3610466e-001
 3.3632934e-001
 3.3654851e-001
 3.3676729e-001
 3.3698988e-001
 3.3721110e-001
 3.3741999e-001
 3.3760643e-001
 3.3777392e-001
 3.3793277e-001
 3.3809340e-001
 3.3825925e-001
 3.3843017e-001
 3.3860481e-001
 3.3878121e-001
 3.3895415e-001
 3.3912042e-001
 3.3928034e-001
 3.3943641e-001
 3.3959183e-001
 3.3974677e-001
 3.3990008e-001
 3.4005061e-001
 3.4019959e-001
 3.4034914e-001
 3.4050107e-001
 3.4065586e-001
 3.4081414e-001
 3.4097534e-001
 3.4113857e-001
 3.4130263e-001
 3.4146643e-001
 3.4162650e-001
 3.4177980e-001
 3.4192327e-001
 3.4205973e-001
 3.4219632e-001
 3.4233958e-001
 3.4248531e-001
 3.4262466e-001
 3.4274864e-001
 3.4285915e-001
 3.4296328e-001
 3.4306797e-001
 3.4317276e-001
 3.4327409e-001
 3.4336784e-001
 3.4345588e-001
 3.4354261e-001
 3.4363329e-001
 3.4372914e-001
 3.4383091e-001
 3.4393889e-001
 3.4405094e-001
 3.4416384e-001
 3.4427488e-001
 3.4438255e-001
 3.4448650e-001
 3.4458658e-001
 3.4467816e-001
 3.4475300e-001
 3.4480506e-001
 3.4484592e-001
 3.4489566e-001
 3.4497249e-001
 3.4506977e-001
 3.4516457e-001
 3.4523728e-001
 3.4529153e-001
 3.4534550e-001
 3.4541422e-001
 3.4549299e-001
 3.4556332e-001
 3.4560952e-001
 3.4563658e-001
 3.4566274e-001
 3.4570453e-001
 3.4576166e-001
 3.4582421e-001
 3.4588224e-001
 3.4592867e-001
 3.4595704e-001
 3.4596318e-001
 3.4595263e-001
 3.4593791e-001
 3.4592995e-001
 3.4593239e-001
 3.4594297e-001
 3.4595978e-001
 3.4597486e-001
 3.4597811e-001
 3.4596011e-001
 3.4592533e-001
 3.4588450e-001
 3.4584907e-001
 3.4581849e-001
 3.4578648e-001
 3.4574744e-001
 3.4570074e-001
 3.4564829e-001
 3.4559265e-001
 3.4552938e-001
 3.4545079e-001
 3.4535035e-001
 3.4523126e-001
 3.4510344e-001
 3.4497607e-001
 3.4485373e-001
 3.4473917e-001
 3.4463409e-001
 3.4453508e-001
 3.4443650e-001
 3.4433225e-001
 3.4422237e-001
 3.4411108e-001
 3.4400010e-001
 3.4388644e-001
 3.4376299e-001
 3.4362328e-001
 3.4347254e-001
 3.4332162e-001
 3.4318075e-001
 3.4304300e-001
 3.4289211e-001
 3.4271255e-001
 3.4250480e-001
 3.4227940e-001
 3.4204528e-001
 3.4180716e-001
 3.4156615e-001
 3.4132275e-001
 3.4107316e-001
 3.4080881e-001
 3.4052214e-001
 3.4021443e-001
 3.3989054e-001
 3.3955541e-001
 3.3921623e-001
 3.3888012e-001
 3.3855468e-001
 3.3824214e-001
 3.3794245e-001
 3.3765513e-001
 3.3737731e-001
 3.3710417e-001
 3.3683130e-001
 3.3655828e-001
 3.3628720e-001
 3.3601934e-001
 3.3576009e-001
 3.3551735e-001
 3.3529660e-001
 3.3509690e-001
 3.3491150e-001
 3.3473456e-001
 3.3456841e-001
 3.3441898e-001
 3.3429328e-001
 3.3419660e-001
 3.3413339e-001
 3.3410677e-001
 3.3411315e-001
 3.3414412e-001
 3.3419126e-001
 3.3425137e-001
 3.3432186e-001
 3.3440098e-001
 3.3448315e-001
 3.3455947e-001
 3.3462203e-001
 3.3467320e-001
 3.3472130e-001
 3.3477226e-001
 3.3482286e-001
 3.3486283e-001
 3.3488280e-001
 3.3488843e-001
 3.3489525e-001
 3.3491585e-001
 3.3494714e-001
 3.3497551e-001
 3.3498892e-001
 3.3498406e-001
 3.3496329e-001
 3.3492950e-001
 3.3488908e-001
 3.3485115e-001
 3.3482292e-001
 3.3479908e-001
 3.3476663e-001
 3.3471304e-001
 3.3463964e-001
 3.3455351e-001
 3.3446366e-001
 3.3437717e-001
 3.3430266e-001
 3.3424655e-001
 3.3420506e-001
 3.3416748e-001
 3.3412310e-001
 3.3407128e-001
 3.3401418e-001
 3.3395597e-001
 3.3389974e-001
 3.3384788e-001
 3.3380327e-001
 3.3376440e-001
 3.3372849e-001
 3.3369151e-001
 3.3364308e-001
 3.3356777e-001
 3.3345422e-001
 3.3331764e-001
 3.3318937e-001
 3.3309874e-001
 3.3304259e-001
 3.3299962e-001
 3.3294931e-001
 3.3288619e-001
 3.3281487e-001
 3.3273765e-001
 3.3265191e-001
 3.3255005e-001
 3.3242530e-001
 3.3228120e-001
 3.3212662e-001
 3.3197019e-001
 3.3180946e-001
 3.3163679e-001
 3.3144459e-001
 3.3123869e-001
 3.3103243e-001
 3.3083716e-001
 3.3064988e-001
 3.3045810e-001
 3.3025089e-001
 3.3002767e-001
 3.2979333e-001
 3.2955375e-001
 3.2931131e-001
 3.2906577e-001
 3.2881799e-001
 3.2856950e-001
 3.2832310e-001
 3.2808071e-001
 3.2784218e-001
 3.2760486e-001
 3.2736683e-001
 3.2713068e-001
 3.2690254e-001
 3.2668674e-001
 3.2647473e-001
 3.2625157e-001
 3.2600266e-001
 3.2573682e-001
 3.2547498e-001
 3.2523605e-001
 3.2501552e-001
 3.2479528e-001
 3.2455859e-001
 3.2430616e-001
 3.2404864e-001
 3.2379645e-001
 3.2354808e-001
 3.2329497e-001
 3.2303053e-001
 3.2275513e-001
 3.2247421e-001
 3.2219276e-001
 3.2190761e-001
 3.2160893e-001
 3.2128879e-001
 3.2094583e-001
 3.2058248e-001
 3.2020083e-001
 3.1980526e-001
 3.1940025e-001
 3.1899041e-001
 3.1858280e-001
 3.1818664e-001
 3.1780848e-001
 3.1744009e-001
 3.1706360e-001
 3.1666362e-001
 3.1624827e-001
 3.1584048e-001
 3.1546104e-001
 3.1511736e-001
 3.1480980e-001
 3.1453645e-001
 3.1428498e-001
 3.1403765e-001
 3.1377903e-001
 3.1352431e-001
 3.1330669e-001
 3.1315678e-001
 3.1306964e-001
 3.1302032e-001
 3.1298599e-001
 3.1296813e-001
 3.1298259e-001
 3.1304306e-001
 3.1313780e-001
 3.1324011e-001
 3.1332633e-001
 3.1339854e-001
 3.1347468e-001
 3.1357104e-001
 3.1368387e-001
 3.1379715e-001
 3.1389731e-001
 3.1398344e-001
 3.1406432e-001
 3.1414726e-001
 3.1422815e-001
 3.1429738e-001
 3.1434423e-001
 3.1436026e-001
 3.1433746e-001
 3.1426877e-001
 3.1416303e-001
 3.1403700e-001
 3.1390738e-001
 3.1377482e-001
 3.1363335e-001
 3.1347522e-001
 3.1329504e-001
 3.1308678e-001
 3.1284642e-001
 3.1258252e-001
 3.1231067e-001
 3.1204584e-001
 3.1178680e-001
 3.1152341e-001
 3.1124607e-001
 3.1095091e-001
 3.1063765e-001
 3.1030691e-001
 3.0997366e-001
 3.0965951e-001
 3.0938247e-001
 3.0911943e-001
 3.0882245e-001
 3.0844930e-001
 3.0802101e-001
 3.0759582e-001
 3.0722651e-001
 3.0690315e-001
 3.0657944e-001
 3.0621246e-001
 3.0580544e-001
 3.0538756e-001
 3.0498663e-001
 3.0460447e-001
 3.0422696e-001
 3.0384180e-001
 3.0344602e-001
 3.0304250e-001
 3.0263320e-001
 3.0221516e-001
 3.0178106e-001
 3.0132508e-001
 3.0085671e-001
 3.0039334e-001
 2.9995009e-001
 2.9951879e-001
 2.9907590e-001
 2.9860076e-001
 2.9809719e-001
 2.9758194e-001
 2.9707223e-001
 2.9657149e-001
 2.9607755e-001
 2.9558700e-001
 2.9509494e-001
 2.9459631e-001
 2.9408661e-001
 2.9357207e-001
 2.9306564e-001
 2.9257837e-001
 2.9210871e-001
 2.9164657e-001
 2.9118317e-001
 2.9071653e-001
 2.9024896e-001
 2.8978235e-001
 2.8931701e-001
 2.8885046e-001
 2.8838152e-001
 2.8791833e-001
 2.8747344e-001
 2.8705764e-001
 2.8665328e-001
 2.8622669e-001
 2.8574798e-001
 2.8523210e-001
 2.8471977e-001
 2.8424785e-001
 2.8381258e-001
 2.8338596e-001
 2.8294113e-001
 2.8247020e-001
 2.8197622e-001
 2.8146517e-001
 2.8096676e-001
 2.8052664e-001
 2.8018183e-001
 2.7988651e-001
 2.7954701e-001
 2.7907827e-001
 2.7849939e-001
 2.7789116e-001
 2.7732807e-001
 2.7681008e-001
 2.7629274e-001
 2.7573979e-001
 2.7518612e-001
 2.7471066e-001
 2.7438313e-001
 2.7417362e-001
 2.7399385e-001
 2.7375942e-001
 2.7343625e-001
 2.7301902e-001
 2.7250236e-001
 2.7187634e-001
 2.7112779e-001
 2.7025563e-001
 2.6938367e-001
 2.6870871e-001
 2.6840606e-001
 2.6841211e-001
 2.6852289e-001
 2.6854643e-001
 2.6843929e-001
 2.6824445e-001
 2.6800442e-001
 2.6773101e-001
 2.6741970e-001
 2.6706657e-001
 2.6667678e-001
 2.6626077e-001
 2.6582858e-001
 2.6537573e-001
 2.6489046e-001
 2.6436684e-001
 2.6386172e-001
 2.6346856e-001
 2.6327023e-001
 2.6322779e-001
 2.6323172e-001
 2.6317912e-001
 2.6305211e-001
